An introduction to basic fisheries analysis with R
…
You may be interested in looking at landings across different gear types. Here, we now group the data frame by both the year and the gear type in order to summarize the total landings by year and by gear.

# Start with the landings data frame
annual_gear_landings <- landings_data %>% 
  # Add colomn for kilograms by dividing gram column by 1000
  mutate(Weight_kg = Weight_g / 1000) %>%
  # Group the data by year and gear type
  group_by(Year,Gear) %>% 
  # Next, summarize the total annual landings per year and gear type
  summarize(Annual_Landings_kg = sum(Weight_kg,na.rm=TRUE))

## Display a table of the annual landings data by gear type
annual_gear_landings

## # A tibble: 39 x 3
## # Groups:   Year [?]
##     Year     Gear Annual_Landings_kg
##    <int>    <chr>              <dbl>
##  1  2003  gillnet          13.413401
##  2  2003 handline           2.874861
##  3  2003  muroami         247.879049
##  4  2003     trap          46.241825
##  5  2004  gillnet           4.189301
##  6  2004 handline          57.705893
##  7  2004  muroami         370.866460
##  8  2004 speargun           9.476406
##  9  2004     trap         118.683464
## 10  2004 trolling           4.386547
## # ... with 29 more rows
…
