An introduction to basic fisheries analysis with R
…
Right click and save-link-as to download landings data

Right click and save-link-as to download life history data

Next, you’ll load these two csv files into R. First load the landings data which includes catch, effort, and length measurements and store these data to a data frame called landings_data. Next, load the life history parameter data file and store these data to a data frame called life_history_parameters.

landings_data <- read_csv("_data/sample_landings_data.csv")

life_history_parameters <- read_csv("_data/life_history_parameters.csv")

Let’s take a quick look at what’s in each of these data frames.

landings_data

## # A tibble: 7,214 × 8
##     Year    Date Trip_ID Effort_Hours  Gear       Species Length_cm
##    <int>   <chr>   <int>        <int> <chr>         <chr>     <dbl>
## 1   2003 4/30/03       1           10  Trap Caesio cuning        36
## 2   2003 4/30/03       1           10  Trap Caesio cuning        29
## 3   2003 4/30/03       1           10  Trap Caesio cuning        34
## 4   2003 4/30/03       1           10  Trap Caesio cuning        36
## 5   2003 4/30/03       1           10  Trap Caesio cuning        34
## 6   2003 4/30/03       1           10  Trap Caesio cuning        28
## 7   2003 4/30/03       1           10  Trap Caesio cuning        30
## 8   2003 4/30/03       1           10  Trap Caesio cuning        27
## 9   2003 4/30/03       1           10  Trap Caesio cuning        33
## 10  2003 4/30/03       1           10  Trap Caesio cuning        35
## # ... with 7,204 more rows, and 1 more variables: Weight_g <dbl>
…
