An introduction to basic fisheries analysis with R
…
Right click and save-link-as to download landings data

Screening and cleaning your data to identify and fix any potential errors (missing data, typos, errors, etc.) is an important step before conducting any analyses. This is known as Quality Assurance/Quality Control, or QA/QC. This section includes an overview of steps that should be taken to properly screen your data and introduces some functions that can come in handy when cleaning your data. If you have a small dataset that won’t be updated often, screening and cleaning your data may be easiest in Microsoft Excel by sorting and filtering your data columns. However, we recommend performing your data cleaning using R. This has the advantage that all changes made to a raw dataset will be recorded in a script that is reproducible, which may be especially useful when working with large datasets, if you want to quickly modify any steps of your cleaning process, or if you receive additional data.

7.1 Loading Data and Data Structure

First, let’s read a dataset into R and determine the structure of the dataset. The landings_data data frame is from a fishery-dependent landing site survey. The species included in this data set is Caesio cuning, a yellowtail fusilier. We’ll be able to use these data to create length-frequency histograms that describe the size structure of the population, as well as trends in catch and CPUE.

We can look at the raw data just by typing landings_data.

landings_data <- read_csv("_data/sample_landings_data_raw.csv")

landings_data

## # A tibble: 7,214 × 8
##       yy     dat  trip effort    gr             sp  l_cm      w_cm
##    <int>   <chr> <int>  <int> <chr>          <chr> <dbl>     <dbl>
## 1   2003 4/30/03     1     10  Trap Caesoi cunning    36 1089.1402
## 2   2003 4/30/03     1     10  trap  Caesio cuning    29  565.3879
## 3   2003 4/30/03     1     10  Trap  Caesio cuning    34  915.8276
## 4   2003 4/30/03     1     10  Trap  Caesio cuning    36 1089.1402
## 5   2003 4/30/03     1     10  Trap  Caesio cuning    34  915.8276
## 6   2003 4/30/03     1     10  Trap Caesoi cunning    28  508.3185
## 7   2003 4/30/03     1     10  Trap  Caesio cuning    30  626.6000
## 8   2003 4/30/03     1     10  Trap  Caesio cuning    27  455.2443
## 9   2003 4/30/03     1     10  Trap  Caesio cuning    33  836.5681
## 10  2003 4/30/03     1     10  Trap  Caesio cuning    35  999.9688
## # ... with 7,204 more rows
…
landings_data

## # A tibble: 7,214 × 8
##     Year       Date Trip_ID Effort_Hours  Gear        Species Length_cm
##    <int>     <date>   <int>        <int> <chr>          <chr>     <dbl>
## 1   2003 2003-04-30       1           10  Trap Caesoi cunning        36
## 2   2003 2003-04-30       1           10  trap  Caesio cuning        29
## 3   2003 2003-04-30       1           10  Trap  Caesio cuning        34
## 4   2003 2003-04-30       1           10  Trap  Caesio cuning        36
## 5   2003 2003-04-30       1           10  Trap  Caesio cuning        34
## 6   2003 2003-04-30       1           10  Trap Caesoi cunning        28
## 7   2003 2003-04-30       1           10  Trap  Caesio cuning        30
## 8   2003 2003-04-30       1           10  Trap  Caesio cuning        27
## 9   2003 2003-04-30       1           10  Trap  Caesio cuning        33
## 10  2003 2003-04-30       1           10  Trap  Caesio cuning        35
## # ... with 7,204 more rows, and 1 more variables: Weight_g <dbl>
…
## # A tibble: 3 × 8
##    Year       Date Trip_ID Effort_Hours     Gear       Species Length_cm
##   <int>     <date>   <int>        <int>   <fctr>         <chr>     <dbl>
## 1  2003 2003-05-01      10           10 handline Caesio cuning    16.000
## 2  2003 2003-05-01      10           10 handline Caesio cuning    16.000
## 3  2004 2004-12-18     527            9     trap Caesio cuning    27.609
## # ... with 1 more variables: Weight_g <dbl>

There are 3 rows in our dataframe with missing values. If we want to remove observations with missing data from our dataset we can use the na.omit function which will remove any rows with missing values from our dataset:

landings_data <- na.omit(landings_data)

landings_data

## # A tibble: 7,211 × 8
##     Year       Date Trip_ID Effort_Hours  Gear        Species Length_cm
##    <int>     <date>   <int>        <int> <chr>          <chr>     <dbl>
## 1   2003 2003-04-30       1           10  Trap Caesoi cunning        36
## 2   2003 2003-04-30       1           10  trap  Caesio cuning        29
## 3   2003 2003-04-30       1           10  Trap  Caesio cuning        34
## 4   2003 2003-04-30       1           10  Trap  Caesio cuning        36
## 5   2003 2003-04-30       1           10  Trap  Caesio cuning        34
## 6   2003 2003-04-30       1           10  Trap Caesoi cunning        28
## 7   2003 2003-04-30       1           10  Trap  Caesio cuning        30
## 8   2003 2003-04-30       1           10  Trap  Caesio cuning        27
## 9   2003 2003-04-30       1           10  Trap  Caesio cuning        33
## 10  2003 2003-04-30       1           10  Trap  Caesio cuning        35
## # ... with 7,201 more rows, and 1 more variables: Weight_g <dbl>
…
7.5 Saving clean data

Now that we have completed our data cleaning and screening, let’s examine the structure of our data frame again:

landings_data

## # A tibble: 7,208 × 8
##     Year       Date Trip_ID Effort_Hours  Gear       Species Length_cm
##    <int>     <date>   <int>        <int> <chr>         <chr>     <dbl>
## 1   2003 2003-04-30       1           10  trap Caesio cuning        36
## 2   2003 2003-04-30       1           10  trap Caesio cuning        29
## 3   2003 2003-04-30       1           10  trap Caesio cuning        34
## 4   2003 2003-04-30       1           10  trap Caesio cuning        36
## 5   2003 2003-04-30       1           10  trap Caesio cuning        34
## 6   2003 2003-04-30       1           10  trap Caesio cuning        28
## 7   2003 2003-04-30       1           10  trap Caesio cuning        30
## 8   2003 2003-04-30       1           10  trap Caesio cuning        27
## 9   2003 2003-04-30       1           10  trap Caesio cuning        33
## 10  2003 2003-04-30       1           10  trap Caesio cuning        35
## # ... with 7,198 more rows, and 1 more variables: Weight_g <dbl>
…
